…
Voici les 10 premières lignes du dataset.  On a 10 442 lignes et une centaine de colonnes.
Les variables d'intérêt sont:  
* PWEIGHT , le poids de l'observation.  
* PWNETWPG, la valeur nette de l'unité familiale selon la base de long terme.    
* PWNETWPT, la valeur nette de l'unité familiale selon la base de la terminaison  (je ne sais pas quelle est la bonne base à utiliser, mais les chiffres se ressemblent)  
* PAGEMIEG, la catégorie d'âge   
* PPVRES, la province de résidence    
* PFMTYPG, le type de famille    


::: {.cell}
::: {.cell-output .cell-output-stdout}

```
# A tibble: 10,422 × 100
   PEFAMID PWEIGHT PAGEMIEG PAS1MRAG PAS1MRG1 PAS1MRG2 PASR1MFA PASR1MR PASRBUYG
   <chr>     <dbl> <chr>       <dbl>    <dbl>    <dbl>    <dbl>   <dbl>    <dbl>
 1 00001     4415. 06              6        6        6 99999996       2        7
 2 00002      805. 14              6        6        6 99999996       6       96
 3 00003     1393. 12              6        6        6 99999996       6        4
 4 00004      217. 11              6        6        6 99999996       6        5
 5 00005      455. 11              6        6        6 99999996       6        5
 6 00006     2936. 04              6        6        6 99999996       2        9
 7 00007      920. 13              6        6        6 99999996       6        6
 8 00008     1057. 14              6        6        6 99999996       6        5
 9 00009      940. 07              6        6        6 99999996       6        7
10 00010      214. 11              6        6        6 99999996       6        4
# ℹ 10,412 more rows
# ℹ 91 more variables: PASRCNMG <dbl>, PASRCON <dbl>, PASRCST <dbl>,
#   PASRCURG <dbl>, PASRDPO1 <dbl>, PASRDPO2 <dbl>, PASRDPO3 <dbl>,
#   PASRDPO4 <dbl>, PASRDPO5 <dbl>, PASRDWNG <dbl>, PASRFNMG <dbl>,
#   PASRINT <dbl>, PASRINTG <chr>, PASRMOAG <dbl>, PASRMPFG <dbl>,
#   PASRMRYG <dbl>, PASRRNTG <dbl>, PASRSKP <dbl>, PATTCRC <dbl>,
#   PATTCRLM <dbl>, PATTCRR <dbl>, PATTCRU <dbl>, PATTDIF <dbl>, …
```
…
