…
* Le premier million d'actifs net est exempté d’impôt  
* Entre 1 million et 9,9 millions: 0,1% de l’actif net
* Entre 10 millions et 99 millions: 1% de l’actif net
* Plus de 100 millions: 1,5% de l’actif net




Voici à quoi ressemblent les micro-données brutes préparées (et triées en ordre descendant d'avoir net)

::: {.cell}
::: {.cell-output .cell-output-stdout}

```
# A tibble: 2,003 × 16
   PWNETWPT PWEIGHT PWAPRVAL PWASTRST PAGEMIEG PFMTYPG gr_age  type_menage
      <dbl>   <dbl>    <dbl>    <dbl> <chr>    <chr>   <chr>   <chr>      
 1 17741925   1187.   950000  1650000 08       9       45-54   Non déclaré
 2 16090000    569.        0        0 12       9       65-plus Non déclaré
 3 14336450   1775.   420000  2500000 10       9       55-64   Non déclaré
 4 13824500   1105.  1000000   875000 08       9       45-54   Non déclaré
 5 11528400   1581.   280000        0 10       9       55-64   Non déclaré
 6 10427000    781.   775000    75000 08       9       45-54   Non déclaré
 7 10425000    837.   525000   475000 10       9       55-64   Non déclaré
 8  9625000    557.   925000        0 12       9       65-plus Non déclaré
 9  9582500    661.  1400000  4900000 09       9       55-64   Non déclaré
10  8812500   2033.   725000        0 06       9       35-44   Non déclaré
# ℹ 1,993 more rows
# ℹ 8 more variables: nombre_adulte_scenario_min <dbl>,
#   nombre_adulte_scenario_max <dbl>, valeur_par_adulte_scenario_min <dbl>,
#   valeur_par_adulte_scenario_max <dbl>, taxe_par_adulte_scenario_min <dbl>,
#   taxe_par_adulte_scenario_max <dbl>, taxe_totale_scenario_min <dbl>,
#   taxe_totale_scenario_max <dbl>
```
…
